Testing/out.vcd
$date
	Tue Jun 24 04:57:36 2025
$end
$version
	Icarus Verilog
$end
$timescale
	1ps
$end
$scope module afc_tb $end
$var wire 6 ! out [5:0] $end
$var reg 1 " clr $end
$var reg 1 # div_clk $end
$var reg 1 $ pre_clk $end
$var reg 1 % ref_clk $end
$var integer 32 & delay_time [31:0] $end
$scope module dut $end
$var wire 1 " clr $end
$var wire 1 # fdiv $end
$var wire 1 $ fpre $end
$var wire 1 % fref $end
$var wire 1 ' rst_fsm $end
$var wire 1 ( rst_comp $end
$var wire 6 ) out [5:0] $end
$var wire 1 * done $end
$var wire 3 + comp_flags [2:0] $end
$var wire 1 , change $end
$scope module freq_comp_inst $end
$var wire 1 # div_clk $end
$var wire 1 $ pre_clk $end
$var wire 1 % ref_clk $end
$var wire 1 ( rst $end
$var wire 8 - ref_count [7:0] $end
$var wire 8 . div_count [7:0] $end
$var reg 8 / diff1 [7:0] $end
$var reg 8 0 diff2 [7:0] $end
$var reg 3 1 div_check [2:0] $end
$var reg 8 2 div_count_buff [7:0] $end
$var reg 1 3 div_flag $end
$var reg 1 4 div_flag_pos $end
$var reg 8 5 div_start [7:0] $end
$var reg 1 * done $end
$var reg 3 6 flags [2:0] $end
$var reg 3 7 m [2:0] $end
$var reg 3 8 n [2:0] $end
$var reg 3 9 ref_check [2:0] $end
$var reg 8 : ref_count_buff [7:0] $end
$var reg 1 ; ref_flag $end
$var reg 1 < ref_flag_pos $end
$var reg 8 = ref_start [7:0] $end
$scope module div_counter $end
$var wire 1 $ clk $end
$var wire 1 # en $end
$var wire 1 ( rst $end
$var reg 8 > result [7:0] $end
$upscope $end
$scope module ref_counter $end
$var wire 1 $ clk $end
$var wire 1 % en $end
$var wire 1 ( rst $end
$var reg 8 ? result [7:0] $end
$upscope $end
$upscope $end
$scope module fsm_inst $end
$var wire 1 % clk $end
$var wire 3 @ comp_in [2:0] $end
$var wire 1 * done $end
$var wire 1 " rst_n $end
$var parameter 6 A DONE_FLAG $end
$var parameter 3 B FAST $end
$var parameter 3 C FREEZE $end
$var parameter 6 D S00000 $end
$var parameter 6 E S00001 $end
$var parameter 6 F S00010 $end
$var parameter 6 G S00011 $end
$var parameter 6 H S00100 $end
$var parameter 6 I S00101 $end
$var parameter 6 J S00110 $end
$var parameter 6 K S00111 $end
$var parameter 6 L S01000 $end
$var parameter 6 M S01001 $end
$var parameter 6 N S01010 $end
$var parameter 6 O S01011 $end
$var parameter 6 P S01100 $end
$var parameter 6 Q S01101 $end
$var parameter 6 R S01110 $end
$var parameter 6 S S01111 $end
$var parameter 6 T S10000 $end
$var parameter 6 U S10001 $end
$var parameter 6 V S10010 $end
$var parameter 6 W S10011 $end
$var parameter 6 X S10100 $end
$var parameter 6 Y S10101 $end
$var parameter 6 Z S10110 $end
$var parameter 6 [ S10111 $end
$var parameter 6 \ S11000 $end
$var parameter 6 ] S11001 $end
$var parameter 6 ^ S11010 $end
$var parameter 6 _ S11011 $end
$var parameter 6 ` S11100 $end
$var parameter 6 a S11101 $end
$var parameter 6 b S11110 $end
$var parameter 6 c S11111 $end
$var parameter 3 d SLOW $end
$var reg 1 , change $end
$var reg 6 e current_state [5:0] $end
$var reg 1 f finish $end
$var reg 6 g next_state [5:0] $end
$var reg 6 h state_out [5:0] $end
$upscope $end
$scope module reset_control_inst $end
$var wire 1 , change $end
$var wire 1 % clk $end
$var wire 1 " clr $end
$var reg 1 i cmp_init $end
$var reg 1 j count $end
$var reg 1 ( rst_cmp $end
$var reg 1 ' rst_fsm $end
$upscope $end
$upscope $end
$upscope $end
$enddefinitions $end
$comment Show the parameter values. $end
$dumpall
b10 d
b11111 c
b11110 b
b11101 a
b11100 `
b11011 _
b11010 ^
b11001 ]
b11000 \
b10111 [
b10110 Z
b10101 Y
b10100 X
b10011 W
b10010 V
b10001 U
b10000 T
b1111 S
b1110 R
b1101 Q
b1100 P
b1011 O
b1010 N
b1001 M
b1000 L
b111 K
b110 J
b101 I
b100 H
b11 G
b10 F
b1 E
b0 D
b1 C
b100 B
b100000 A
$end
#0
$dumpvars
0j
1i
b10000 h
b10000 g
0f
b10000 e
b0 @
b0 ?
b0 >
b0 =
0<
0;
b0 :
b0 9
b10 8
b11 7
b0 6
b0 5
04
03
b0 2
b0 1
b0 0
b0 /
b0 .
b0 -
0,
b0 +
0*
b10000 )
0(
0'
b10010 &
0%
0$
0#
0"
b10000 !
$end
#5000
1$
#10000
0$
#15000
1$
#18000
1#
#20000
0$
#25000
1$
#30000
0$
#35000
1$
#36000
0#
#40000
0$
1%
#45000
1$
#50000
0$
#54000
1#
#55000
1$
#60000
0$
#65000
1$
#70000
0$
#72000
0#
#75000
1$
#80000
0$
0%
#85000
1$
#90000
0$
1#
#95000
1$
#100000
b1 .
b1 >
1'
0i
1(
0$
1"
#105000
b10 .
b10 >
1$
#108000
0#
#110000
0$
#115000
1$
#120000
1<
0$
1%
#125000
b1 -
b1 ?
1$
#126000
14
b10 5
1#
#130000
0$
#135000
b10 -
b10 ?
b11 .
b11 >
1$
#140000
0$
#144000
b1 1
b1 2
0#
#145000
b11 -
b11 ?
1$
#150000
0$
#155000
b100 -
b100 ?
1$
#160000
b1 9
b100 :
0$
0%
#162000
1#
#165000
b100 .
b100 >
1$
#170000
0$
#175000
b101 .
b101 >
1$
#180000
13
b10 1
b11 2
0$
0#
#185000
1$
#190000
0$
#195000
1$
#198000
1#
#200000
0$
1%
#205000
b110 .
b110 >
b101 -
b101 ?
1$
#210000
0$
#215000
b110 -
b110 ?
b111 .
b111 >
1$
#216000
0#
#220000
0$
#225000
b111 -
b111 ?
1$
#230000
0$
#234000
1#
#235000
b1000 -
b1000 ?
b1000 .
b1000 >
1$
#240000
b101 0
b11111011 /
1;
b10 9
b1000 :
0$
0%
#245000
b1001 .
b1001 >
b0 1
b0 9
04
0<
03
0;
b0 2
b0 :
b100 +
b100 6
b100 @
1$
#250000
0$
#252000
0#
#255000
b1000 g
1*
1$
#260000
0$
#265000
1$
#270000
0$
1#
#275000
b1010 .
b1010 >
1$
#280000
b0 +
b0 6
b0 @
b1000 !
b1000 )
b1000 h
b1000 g
0(
b1000 e
1,
0$
1%
#285000
b0 .
b0 >
b0 -
b0 ?
0*
1$
#288000
0#
#290000
0$
#295000
1$
#300000
0$
#305000
1$
#306000
1#
#310000
0$
#315000
1$
#320000
1j
0$
0%
#324000
0#
#325000
1$
#330000
0$
b1001011 &
#335000
1$
#340000
0$
#342000
1#
#345000
1$
#350000
0$
#355000
1$
#360000
0,
0$
1%
#365000
1$
#370000
0$
#375000
1$
#380000
0$
#385000
1$
#390000
0$
#395000
1$
#400000
b1 .
b1 >
0j
1(
0$
0%
#405000
b10 .
b10 >
1$
#410000
0$
#415000
b11 .
b11 >
1$
#417000
0#
#420000
0$
#425000
1$
#430000
0$
#435000
1$
#440000
1<
0$
1%
#445000
b1 -
b1 ?
1$
#450000
0$
#455000
b10 -
b10 ?
1$
#460000
0$
#465000
b11 -
b11 ?
1$
#470000
0$
#475000
b100 -
b100 ?
1$
#480000
b1 9
b100 :
0$
0%
#485000
1$
#490000
0$
#492000
14
b11 5
1#
#495000
b100 .
b100 >
1$
#500000
0$
#505000
b101 .
b101 >
1$
#510000
0$
#515000
b110 .
b110 >
1$
#520000
0$
1%
#525000
b101 -
b101 ?
b111 .
b111 >
1$
#530000
0$
#535000
b1000 .
b1000 >
b110 -
b110 ?
1$
#540000
0$
#545000
b111 -
b111 ?
b1001 .
b1001 >
1$
#550000
0$
#555000
b1010 .
b1010 >
b1000 -
b1000 ?
1$
#560000
1;
b10 9
b1000 :
0$
0%
#565000
b1011 .
b1011 >
1$
#567000
b1 1
b1000 2
0#
#570000
0$
#575000
1$
#580000
0$
#585000
1$
#590000
0$
#595000
1$
#600000
0$
1%
#605000
b1001 -
b1001 ?
1$
#610000
0$
#615000
b1010 -
b1010 ?
1$
#620000
0$
#625000
b1011 -
b1011 ?
1$
#630000
0$
#635000
b1100 -
b1100 ?
1$
#640000
0$
0%
#642000
1#
#645000
b1100 .
b1100 >
1$
#650000
0$
#655000
b1101 .
b1101 >
1$
#660000
0$
b101101 &
#665000
b1110 .
b1110 >
1$
#670000
0$
#675000
b1111 .
b1111 >
1$
#680000
0$
1%
#685000
b1101 -
b1101 ?
b10000 .
b10000 >
1$
#690000
0$
#695000
b10001 .
b10001 >
b1110 -
b1110 ?
1$
#700000
0$
#705000
b1111 -
b1111 ?
b10010 .
b10010 >
1$
#710000
0$
#715000
b10011 .
b10011 >
b10000 -
b10000 ?
1$
#717000
b11111000 0
b1000 /
13
b10 1
b10000 2
0#
#720000
0$
0%
#725000
b0 1
b0 9
04
0<
03
0;
b0 2
b0 :
b10 +
b10 6
b10 @
1$
#730000
0$
#735000
b1100 g
1*
1$
#740000
0$
#745000
1$
#750000
0$
#755000
1$
#760000
b0 +
b0 6
b0 @
b1100 !
b1100 )
b1100 h
b1100 g
0(
b1100 e
1,
0$
1%
#762000
1#
#765000
b0 -
b0 ?
b0 .
b0 >
0*
1$
#770000
0$
#775000
1$
#780000
0$
#785000
1$
#790000
0$
#795000
1$
#800000
1j
0$
0%
#805000
1$
#807000
0#
#810000
0$
#815000
1$
#820000
0$
#825000
1$
#830000
0$
#835000
1$
#840000
0,
0$
1%
#845000
1$
#850000
0$
#852000
1#
#855000
1$
#860000
0$
#865000
1$
#870000
0$
#875000
1$
#880000
b1 .
b1 >
0j
1(
0$
0%
#885000
b10 .
b10 >
1$
#890000
0$
#895000
b11 .
b11 >
1$
#897000
0#
#900000
0$
#905000
1$
#910000
0$
#915000
1$
#920000
1<
0$
1%
#925000
b1 -
b1 ?
1$
#930000
0$
#935000
b10 -
b10 ?
1$
#940000
0$
#942000
14
1#
#945000
b100 .
b100 >
b11 -
b11 ?
1$
#950000
0$
#955000
b100 -
b100 ?
b101 .
b101 >
1$
#960000
b1 9
b100 :
0$
0%
#965000
b110 .
b110 >
1$
#970000
0$
#975000
b111 .
b111 >
1$
#980000
0$
#985000
b1000 .
b1000 >
1$
#987000
b1 1
b101 2
0#
#990000
0$
#995000
1$
#1000000
0$
1%
#1005000
b101 -
b101 ?
1$
#1010000
0$
#1015000
b110 -
b110 ?
1$
#1020000
0$
#1025000
b111 -
b111 ?
1$
#1030000
0$
#1032000
1#
#1035000
b1000 -
b1000 ?
b1001 .
b1001 >
1$
#1040000
1;
b10 9
b1000 :
0$
0%
#1045000
b1010 .
b1010 >
1$
#1050000
0$
#1055000
b1011 .
b1011 >
1$
#1060000
0$
#1065000
b1100 .
b1100 >
1$
#1070000
0$
#1075000
b1101 .
b1101 >
1$
#1077000
b11111110 0
b10 /
13
b10 1
b1010 2
0#
#1080000
0$
1%
#1085000
b1001 -
b1001 ?
b0 1
b0 9
04
0<
03
0;
b0 2
b0 :
b1 +
b1 6
b1 @
1$
#1090000
0$
#1095000
b101100 g
b1010 -
b1010 ?
1*
1$
#1100000
0$
#1105000
b1011 -
b1011 ?
1$
#1110000
0$
#1115000
b1100 -
b1100 ?
1$
#1120000
0$
0%
#1122000
1#
#1125000
b1110 .
b1110 >
1$
#1130000
0$
#1135000
b1111 .
b1111 >
1$
#1140000
0$
#1145000
b10000 .
b10000 >
1$
#1150000
0$
#1155000
b10001 .
b10001 >
1$
#1160000
b0 +
b0 6
b0 @
b101100 !
b101100 )
b101100 h
0(
1f
b101100 e
1,
0$
1%
#1165000
b0 .
b0 >
b0 -
b0 ?
0*
1$
#1167000
0#
#1170000
0$
#1175000
1$
#1180000
0$
#1185000
1$
#1190000
0$
#1195000
1$
#1200000
1j
0$
0%
#1205000
1$
#1210000
0$
#1212000
1#
#1215000
1$
#1220000
0$
#1225000
1$
#1230000
0$
#1235000
1$
#1240000
0,
0$
1%
#1245000
1$
#1250000
0$
#1255000
1$
#1257000
0#
#1260000
0$
#1265000
1$
#1270000
0$
#1275000
1$
#1280000
0j
1(
0$
0%
#1285000
1$
#1290000
0$
#1295000
1$
#1300000
0$
#1302000
14
b0 5
1#
#1305000
b1 .
b1 >
1$
#1310000
0$
#1315000
b10 .
b10 >
1$
#1320000
1<
0$
1%
#1325000
b1 -
b1 ?
b11 .
b11 >
1$
#1330000
0$
#1335000
b100 .
b100 >
b10 -
b10 ?
1$
#1340000
0$
#1345000
b11 -
b11 ?
b101 .
b101 >
1$
#1347000
b1 1
b101 2
0#
#1350000
0$
#1355000
b100 -
b100 ?
1$
#1360000
b1 9
b100 :
0$
0%
#1365000
1$
#1370000
0$
#1375000
1$
#1380000
0$
#1385000
1$
#1390000
0$
#1392000
1#
#1395000
b110 .
b110 >
1$
#1400000
0$
1%
#1405000
b101 -
b101 ?
b111 .
b111 >
1$
#1410000
0$
#1415000
b1000 .
b1000 >
b110 -
b110 ?
1$
#1420000
0$
#1425000
b111 -
b111 ?
b1001 .
b1001 >
1$
#1430000
0$
#1435000
b1010 .
b1010 >
b1000 -
b1000 ?
1$
#1437000
13
b10 1
b1010 2
0#
#1440000
1;
b10 9
b1000 :
0$
0%
#1445000
b0 1
b0 9
04
0<
03
0;
b0 2
b0 :
b1 +
b1 6
b1 @
1$
#1450000
0$
#1455000
1*
1$
#1460000
0$
#1465000
1$
#1470000
0$
#1475000
1$
#1480000
0$
1%
#1482000
1#
#1485000
b1001 -
b1001 ?
b1011 .
b1011 >
1$
#1490000
0$
#1495000
b1100 .
b1100 >
b1010 -
b1010 ?
1$
#1500000
0$
#1505000
b1011 -
b1011 ?
b1101 .
b1101 >
1$
#1510000
0$
#1515000
b1110 .
b1110 >
b1100 -
b1100 ?
1$
#1520000
0$
0%
#1525000
b1111 .
b1111 >
1$
#1527000
0#
#1530000
0$
#1535000
1$
#1540000
0$
#1545000
1$
#1550000
0$
#1555000
1$
#1560000
0$
1%
#1565000
b1101 -
b1101 ?
1$
#1570000
0$
#1572000
1#
#1575000
b10000 .
b10000 >
b1110 -
b1110 ?
1$
#1580000
0$
#1585000
b1111 -
b1111 ?
b10001 .
b10001 >
1$
#1590000
0$
#1595000
b10010 .
b10010 >
b10000 -
b10000 ?
1$
